@startuml pakkediagram
component core {
  package frisbeegolf.core
  package frisbeegolf.json
}
component fxui {
  package frisbeegolf.ui
}

component javafx {
  component fxml {
  }
}

component fxmapcontrol {
}
component jackson {
}

component restapi {
	package frisbeegolf.restapi
}

component restserver {
	package frisbeegolf.restserver
}

component jersey {
}

component grizzly2 {
}

restserver ..> jersey
restserver ..> grizzly2

frisbeegolf.restapi ..> frisbeegolf.core
frisbeegolf.restapi ..> frisbeegolf.json

frisbeegolf.restserver ..> frisbeegolf.core
frisbeegolf.restserver ..> frisbeegolf.restapi

frisbeegolf.ui ...> frisbeegolf.core
frisbeegolf.ui ...> frisbeegolf.json

frisbeegolf.ui ..> fxml
frisbeegolf.ui ..> javafx
frisbeegolf.ui ..> fxmapcontrol

frisbeegolf.json ..> jackson
@enduml
